; Engine configuration file.
; It's best edited using the editor UI and not directly,
; since the parameters that go here are not all obvious.
;
; Format:
;   [section] ; section goes between []
;   param=value ; assign values to parameters

config_version=4

_global_script_classes=[ {
"base": "AnimationPlayer",
"class": "NetworkAnimationPlayer",
"language": "GDScript",
"path": "res://addons/godot-rollback-netcode/NetworkAnimationPlayer.gd"
}, {
"base": "Node",
"class": "NetworkRandomNumberGenerator",
"language": "GDScript",
"path": "res://addons/godot-rollback-netcode/NetworkRandomNumberGenerator.gd"
}, {
"base": "Node",
"class": "NetworkTimer",
"language": "GDScript",
"path": "res://addons/godot-rollback-netcode/NetworkTimer.gd"
} ]
_global_script_class_icons={
"NetworkAnimationPlayer": "",
"NetworkRandomNumberGenerator": "",
"NetworkTimer": ""
}

[application]

config/name="Rollback Tutorial"
run/main_scene="res://Main.tscn"
config/icon="res://icon.png"

[autoload]

SyncManager="*res://addons/godot-rollback-netcode/SyncManager.gd"
SyncDebugger="*res://addons/godot-rollback-netcode/SyncDebugger.gd"
SyncReplay="*res://addons/godot-rollback-netcode/SyncReplay.gd"

[editor_plugins]

enabled=PoolStringArray( "res://addons/godot-rollback-netcode/plugin.cfg" )

[input]

sync_debug={
"deadzone": 0.5,
"events": [ Object(InputEventKey,"resource_local_to_scene":false,"resource_name":"","device":0,"alt":false,"shift":false,"control":false,"meta":false,"command":false,"pressed":false,"scancode":16777254,"physical_scancode":0,"unicode":0,"echo":false,"script":null)
 ]
}
player1_up={
"deadzone": 0.5,
"events": [ Object(InputEventKey,"resource_local_to_scene":false,"resource_name":"","device":0,"alt":false,"shift":false,"control":false,"meta":false,"command":false,"pressed":false,"scancode":0,"physical_scancode":87,"unicode":0,"echo":false,"script":null)
 ]
}
player1_down={
"deadzone": 0.5,
"events": [ Object(InputEventKey,"resource_local_to_scene":false,"resource_name":"","device":0,"alt":false,"shift":false,"control":false,"meta":false,"command":false,"pressed":false,"scancode":0,"physical_scancode":83,"unicode":0,"echo":false,"script":null)
 ]
}
player1_left={
"deadzone": 0.5,
"events": [ Object(InputEventKey,"resource_local_to_scene":false,"resource_name":"","device":0,"alt":false,"shift":false,"control":false,"meta":false,"command":false,"pressed":false,"scancode":0,"physical_scancode":65,"unicode":0,"echo":false,"script":null)
 ]
}
player1_right={
"deadzone": 0.5,
"events": [ Object(InputEventKey,"resource_local_to_scene":false,"resource_name":"","device":0,"alt":false,"shift":false,"control":false,"meta":false,"command":false,"pressed":false,"scancode":0,"physical_scancode":68,"unicode":0,"echo":false,"script":null)
 ]
}
player1_bomb={
"deadzone": 0.5,
"events": [ Object(InputEventKey,"resource_local_to_scene":false,"resource_name":"","device":0,"alt":false,"shift":false,"control":false,"meta":false,"command":false,"pressed":false,"scancode":0,"physical_scancode":32,"unicode":0,"echo":false,"script":null)
 ]
}
player2_up={
"deadzone": 0.5,
"events": [ Object(InputEventKey,"resource_local_to_scene":false,"resource_name":"","device":0,"alt":false,"shift":false,"control":false,"meta":false,"command":false,"pressed":false,"scancode":0,"physical_scancode":16777232,"unicode":0,"echo":false,"script":null)
 ]
}
player2_down={
"deadzone": 0.5,
"events": [ Object(InputEventKey,"resource_local_to_scene":false,"resource_name":"","device":0,"alt":false,"shift":false,"control":false,"meta":false,"command":false,"pressed":false,"scancode":0,"physical_scancode":16777234,"unicode":0,"echo":false,"script":null)
 ]
}
player2_left={
"deadzone": 0.5,
"events": [ Object(InputEventKey,"resource_local_to_scene":false,"resource_name":"","device":0,"alt":false,"shift":false,"control":false,"meta":false,"command":false,"pressed":false,"scancode":0,"physical_scancode":16777231,"unicode":0,"echo":false,"script":null)
 ]
}
player2_right={
"deadzone": 0.5,
"events": [ Object(InputEventKey,"resource_local_to_scene":false,"resource_name":"","device":0,"alt":false,"shift":false,"control":false,"meta":false,"command":false,"pressed":false,"scancode":0,"physical_scancode":16777233,"unicode":0,"echo":false,"script":null)
 ]
}
player2_bomb={
"deadzone": 0.5,
"events": [ Object(InputEventKey,"resource_local_to_scene":false,"resource_name":"","device":0,"alt":false,"shift":false,"control":false,"meta":false,"command":false,"pressed":false,"scancode":0,"physical_scancode":16777221,"unicode":0,"echo":false,"script":null)
 ]
}

[network]

rollback/max_buffer_size=10
rollback/interpolation=true
rollback/classes/message_serializer="res://CustomMessageSerializer.gd"
rollback/debug/rollback_ticks=4
rollback/debug/random_rollback_ticks=10
rollback/log_inspector/replay_match_scene_path="res://Main.tscn"

[physics]

common/physics_fps=30
common/enable_pause_aware_picking=true

[rendering]

environment/default_environment="res://default_env.tres"
